<eps> 0
SIL 1
SIL_B 2
SIL_E 3
SIL_I 4
SIL_S 5
SPN 6
SPN_B 7
SPN_E 8
SPN_I 9
SPN_S 10
ം_B 11
ം_E 12
ം_I 13
ം_S 14
ഃ_B 15
ഃ_E 16
ഃ_I 17
ഃ_S 18
അ_B 19
അ_E 20
അ_I 21
അ_S 22
ആ_B 23
ആ_E 24
ആ_I 25
ആ_S 26
ഇ_B 27
ഇ_E 28
ഇ_I 29
ഇ_S 30
ഈ_B 31
ഈ_E 32
ഈ_I 33
ഈ_S 34
ഉ_B 35
ഉ_E 36
ഉ_I 37
ഉ_S 38
ഊ_B 39
ഊ_E 40
ഊ_I 41
ഊ_S 42
ഋ_B 43
ഋ_E 44
ഋ_I 45
ഋ_S 46
ഌ_B 47
ഌ_E 48
ഌ_I 49
ഌ_S 50
എ_B 51
എ_E 52
എ_I 53
എ_S 54
ഏ_B 55
ഏ_E 56
ഏ_I 57
ഏ_S 58
ഐ_B 59
ഐ_E 60
ഐ_I 61
ഐ_S 62
ഒ_B 63
ഒ_E 64
ഒ_I 65
ഒ_S 66
ഓ_B 67
ഓ_E 68
ഓ_I 69
ഓ_S 70
ഔ_B 71
ഔ_E 72
ഔ_I 73
ഔ_S 74
ക_B 75
ക_E 76
ക_I 77
ക_S 78
ഖ_B 79
ഖ_E 80
ഖ_I 81
ഖ_S 82
ഗ_B 83
ഗ_E 84
ഗ_I 85
ഗ_S 86
ഘ_B 87
ഘ_E 88
ഘ_I 89
ഘ_S 90
ങ_B 91
ങ_E 92
ങ_I 93
ങ_S 94
ച_B 95
ച_E 96
ച_I 97
ച_S 98
ഛ_B 99
ഛ_E 100
ഛ_I 101
ഛ_S 102
ജ_B 103
ജ_E 104
ജ_I 105
ജ_S 106
ഝ_B 107
ഝ_E 108
ഝ_I 109
ഝ_S 110
ഞ_B 111
ഞ_E 112
ഞ_I 113
ഞ_S 114
ട_B 115
ട_E 116
ട_I 117
ട_S 118
ഠ_B 119
ഠ_E 120
ഠ_I 121
ഠ_S 122
ഡ_B 123
ഡ_E 124
ഡ_I 125
ഡ_S 126
ഢ_B 127
ഢ_E 128
ഢ_I 129
ഢ_S 130
ണ_B 131
ണ_E 132
ണ_I 133
ണ_S 134
ത_B 135
ത_E 136
ത_I 137
ത_S 138
ഥ_B 139
ഥ_E 140
ഥ_I 141
ഥ_S 142
ദ_B 143
ദ_E 144
ദ_I 145
ദ_S 146
ധ_B 147
ധ_E 148
ധ_I 149
ധ_S 150
ന_B 151
ന_E 152
ന_I 153
ന_S 154
പ_B 155
പ_E 156
പ_I 157
പ_S 158
ഫ_B 159
ഫ_E 160
ഫ_I 161
ഫ_S 162
ബ_B 163
ബ_E 164
ബ_I 165
ബ_S 166
ഭ_B 167
ഭ_E 168
ഭ_I 169
ഭ_S 170
മ_B 171
മ_E 172
മ_I 173
മ_S 174
യ_B 175
യ_E 176
യ_I 177
യ_S 178
ര_B 179
ര_E 180
ര_I 181
ര_S 182
റ_B 183
റ_E 184
റ_I 185
റ_S 186
ല_B 187
ല_E 188
ല_I 189
ല_S 190
ള_B 191
ള_E 192
ള_I 193
ള_S 194
ഴ_B 195
ഴ_E 196
ഴ_I 197
ഴ_S 198
വ_B 199
വ_E 200
വ_I 201
വ_S 202
ശ_B 203
ശ_E 204
ശ_I 205
ശ_S 206
ഷ_B 207
ഷ_E 208
ഷ_I 209
ഷ_S 210
സ_B 211
സ_E 212
സ_I 213
സ_S 214
ഹ_B 215
ഹ_E 216
ഹ_I 217
ഹ_S 218
഼_B 219
഼_E 220
഼_I 221
഼_S 222
ാ_B 223
ാ_E 224
ാ_I 225
ാ_S 226
ി_B 227
ി_E 228
ി_I 229
ി_S 230
ീ_B 231
ീ_E 232
ീ_I 233
ീ_S 234
ു_B 235
ു_E 236
ു_I 237
ു_S 238
ൂ_B 239
ൂ_E 240
ൂ_I 241
ൂ_S 242
ൃ_B 243
ൃ_E 244
ൃ_I 245
ൃ_S 246
െ_B 247
െ_E 248
െ_I 249
െ_S 250
േ_B 251
േ_E 252
േ_I 253
േ_S 254
ൈ_B 255
ൈ_E 256
ൈ_I 257
ൈ_S 258
ൊ_B 259
ൊ_E 260
ൊ_I 261
ൊ_S 262
ോ_B 263
ോ_E 264
ോ_I 265
ോ_S 266
്_B 267
്_E 268
്_I 269
്_S 270
ൗ_B 271
ൗ_E 272
ൗ_I 273
ൗ_S 274
ൺ_B 275
ൺ_E 276
ൺ_I 277
ൺ_S 278
ൻ_B 279
ൻ_E 280
ൻ_I 281
ൻ_S 282
ർ_B 283
ർ_E 284
ർ_I 285
ർ_S 286
ൽ_B 287
ൽ_E 288
ൽ_I 289
ൽ_S 290
ൾ_B 291
ൾ_E 292
ൾ_I 293
ൾ_S 294
ൿ_B 295
ൿ_E 296
ൿ_I 297
ൿ_S 298
‌_B 299
‌_E 300
‌_I 301
‌_S 302
#0 303
#1 304
#2 305
